Grainsize	Spiders
0.245	absent
0.247	absent
0.285	present
0.299	present
0.327	present
0.347	present
0.356	absent
0.36	present
0.363	absent
0.364	present
0.398	absent
0.4	present
0.409	absent
0.421	present
0.432	absent
0.473	present
0.509	present
0.529	present
0.561	absent
0.569	absent
0.594	present
0.638	present
0.656	present
0.816	present
0.853	present
0.938	present
1.036	present
1.045	present
